{ "height":10,
 "layers":[
        {
         "data":[1, 1, 1, 1, 1, 1, 1, 1, 1, 1, 1, 1, 1, 1, 1, 1, 1, 1, 1, 1, 1, 1, 1, 1, 1, 1, 1, 1, 1, 1, 1, 1, 1, 1, 1, 1, 1, 1, 1, 1, 1, 1, 1, 1, 1, 1, 1, 1, 1, 1, 1, 1, 1, 1, 1, 1, 1, 1, 1, 1, 1, 1, 1, 1, 1, 1, 1, 1, 1, 1, 1, 1, 1, 1, 1, 1, 1, 1, 1, 1, 1, 1, 1, 1, 1, 1, 1, 1, 1, 1, 1, 1, 1, 1, 1, 1, 1, 1, 1, 1],
         "height":10,
         "name":"Tile Layer 1",
         "opacity":1,
         "properties":
            {
             "LayerProperty":"1",
             "LayerProperty2":"true"
            },
         "type":"tilelayer",
         "visible":true,
         "width":10,
         "x":0,
         "y":0
        }, 
        {
         "data":[0, 0, 0, 0, 0, 0, 0, 0, 0, 0, 0, 0, 0, 65, 65, 65, 65, 65, 65, 0, 0, 0, 0, 65, 65, 0, 0, 0, 65, 0, 0, 0, 0, 65, 0, 0, 0, 65, 65, 0, 0, 0, 0, 65, 65, 65, 65, 65, 0, 0, 0, 0, 0, 65, 65, 65, 65, 0, 0, 0, 0, 0, 0, 0, 0, 0, 0, 0, 0, 0, 0, 0, 0, 0, 0, 0, 0, 0, 0, 0, 0, 0, 0, 0, 0, 0, 0, 0, 0, 0, 0, 0, 0, 0, 0, 0, 0, 0, 0, 0],
         "height":10,
         "name":"Tile Layer 2",
         "opacity":0.550000011920929,
         "type":"tilelayer",
         "visible":false,
         "width":10,
         "x":0,
         "y":0
        }, 
        {
         "height":10,
         "name":"Object Layer 1",
         "objects":[
                {
                 "height":20,
                 "name":"",
                 "properties":
                    {

                    },
                 "type":"",
                 "visible":true,
                 "width":39,
                 "x":44,
                 "y":81
                }, 
                {
                 "height":43,
                 "name":"Object1",
                 "properties":
                    {
                     "objprop":"1",
                     "test":"test"
                    },
                 "type":"sdff",
                 "visible":true,
                 "width":68,
                 "x":61,
                 "y":39
                }, 
                {
                 "height":0,
                 "name":"",
                 "properties":
                    {

                    },
                 "type":"",
                 "visible":true,
                 "width":1,
                 "x":80,
                 "y":62
                }, 
                {
                 "height":0,
                 "name":"test",
                 "properties":
                    {
                     "obj prop":"1",
                     "test":"ttest"
                    },
                 "type":"test",
                 "visible":true,
                 "width":0,
                 "x":63,
                 "y":93
                }],
         "opacity":0.449999988079071,
         "properties":
            {
             "objectprop":"1",
             "test":"two"
            },
         "type":"objectgroup",
         "visible":true,
         "width":10,
         "x":0,
         "y":0
        }, 
        {
         "height":10,
         "name":"Copy of Object Layer 1",
         "objects":[],
         "opacity":1,
         "properties":
            {
             "objectprop":"1",
             "test":"two"
            },
         "type":"objectgroup",
         "visible":false,
         "width":10,
         "x":0,
         "y":0
        }, 
        {
         "height":10,
         "image":"",
         "name":"Image Layer 1",
         "opacity":1,
         "properties":
            {
             "imageprop":"1",
             "test":"test"
            },
         "type":"imagelayer",
         "visible":true,
         "width":10,
         "x":0,
         "y":0
        }, 
        {
         "height":10,
         "image":"",
         "name":"Copy of Image Layer 1",
         "opacity":1,
         "properties":
            {
             "imageprop":"1",
             "test":"test"
            },
         "type":"imagelayer",
         "visible":false,
         "width":10,
         "x":0,
         "y":0
        }],
 "orientation":"orthogonal",
 "properties":
    {
     "MapProperty":"1"
    },
 "tileheight":20,
 "tilesets":[
        {
         "firstgid":1,
         "image":"floor-tiles-20x20.png",
         "imageheight":260,
         "imagewidth":400,
         "margin":0,
         "name":"floor-tiles-20x20",
         "properties":
            {

            },
         "spacing":0,
         "terrains":[
                {
                 "name":"Test",
                 "tile":-1
                }, 
                {
                 "name":"AddTerrain",
                 "tile":-1
                }],
         "tileheight":20,
         "tileproperties":
            {
             "0":
                {
                 "Tile0Property":"1"
                },
             "1":
                {
                 "Tile2Property":"1"
                },
             "2":
                {
                 "Tile3Property":"1"
                },
             "46":
                {
                 "collidable":"1"
                }
            },
         "tiles":
            {
             "0":
                {
                 "terrain":[-1, 0, -1, -1]
                },
             "1":
                {
                 "terrain":[0, -1, -1, -1]
                },
             "2":
                {
                 "terrain":[0, 0, 0, 0]
                },
             "21":
                {
                 "terrain":[0, -1, -1, -1]
                }
            },
         "tilewidth":20
        }, 
        {
         "firstgid":261,
         "image":"floor-tiles-20x20.png",
         "imageheight":260,
         "imagewidth":400,
         "margin":0,
         "name":"floor-tiles-20x20",
         "properties":
            {

            },
         "spacing":0,
         "terrains":[
                {
                 "name":"New Terrain",
                 "tile":-1
                }],
         "tileheight":20,
         "tileproperties":
            {
             "104":
                {
                 "tilesettwoprop":"true"
                }
            },
         "tilewidth":20
        }],
 "tilewidth":20,
 "version":1,
 "width":10
}